# Blender v2.62 (sub 0) OBJ File: ''
# www.blender.org
o Mesh_Sphere
v -0.707107 -0.707107 -0.000000
v -0.831470 -0.555570 -0.000000
v -0.815493 -0.555570 -0.162212
v -0.693520 -0.707107 -0.137950
v -0.923880 0.382683 0.000000
v -0.831470 0.555570 0.000000
v -0.815493 0.555570 -0.162212
v -0.906127 0.382683 -0.180240
v -0.555570 -0.831470 -0.000000
v -0.544895 -0.831470 -0.108386
v -0.980785 0.195090 0.000000
v -0.961940 0.195090 -0.191342
v -0.382683 -0.923880 -0.000000
v -0.375330 -0.923880 -0.074658
v -1.000000 0.000000 0.000000
v -0.980785 0.000000 -0.195090
v -0.382683 0.923880 0.000000
v -0.195090 0.980785 0.000000
v -0.191342 0.980785 -0.038060
v -0.375330 0.923880 -0.074658
v -0.195090 -0.980785 -0.000000
v -0.191341 -0.980785 -0.038060
v -0.980785 -0.195090 -0.000000
v -0.961940 -0.195090 -0.191342
v -0.555570 0.831470 0.000000
v -0.544895 0.831470 -0.108386
v -0.923880 -0.382683 -0.000000
v -0.906127 -0.382683 -0.180240
v -0.707107 0.707107 0.000000
v -0.693520 0.707107 -0.137950
v -0.513280 -0.831470 -0.212608
v -0.353553 -0.923880 -0.146447
v -0.906127 0.195090 -0.375330
v -0.923880 0.000000 -0.382684
v -0.180240 0.980785 -0.074658
v -0.353553 0.923880 -0.146447
v -0.180240 -0.980785 -0.074658
v -0.906127 -0.195090 -0.375330
v -0.513280 0.831470 -0.212608
v -0.853553 -0.382683 -0.353554
v -0.653281 0.707107 -0.270598
v -0.768178 -0.555570 -0.318190
v -0.768178 0.555570 -0.318190
v -0.653281 -0.707107 -0.270598
v -0.853553 0.382683 -0.353553
v -0.691342 -0.555570 -0.461940
v -0.587938 -0.707107 -0.392848
v -0.691342 0.555570 -0.461940
v -0.768178 0.382683 -0.513280
v -0.461940 -0.831470 -0.308658
v -0.815493 0.195090 -0.544895
v -0.318189 -0.923880 -0.212608
v -0.831470 0.000000 -0.555570
v -0.162212 0.980785 -0.108387
v -0.318190 0.923880 -0.212608
v -0.162211 -0.980785 -0.108386
v -0.815493 -0.195090 -0.544895
v -0.461940 0.831470 -0.308658
v -0.768178 -0.382683 -0.513280
v -0.587938 0.707107 -0.392848
v -0.693520 -0.195090 -0.693520
v -0.653281 -0.382683 -0.653282
v -0.392847 0.831470 -0.392848
v -0.500000 0.707107 -0.500000
v -0.587938 -0.555570 -0.587938
v -0.587938 0.555570 -0.587938
v -0.500000 -0.707107 -0.500000
v -0.653281 0.382683 -0.653282
v -0.392847 -0.831470 -0.392848
v -0.693520 0.195090 -0.693520
v -0.270598 -0.923880 -0.270598
v -0.707107 0.000000 -0.707107
v -0.137950 0.980785 -0.137950
v -0.270598 0.923880 -0.270598
v -0.137949 -0.980785 -0.137950
v -0.308658 -0.831470 -0.461940
v -0.212607 -0.923880 -0.318190
v -0.544895 0.195090 -0.815493
v -0.555570 0.000000 -0.831470
v -0.108386 0.980785 -0.162212
v -0.212607 0.923880 -0.318190
v -0.108386 -0.980785 -0.162212
v -0.544895 -0.195090 -0.815493
v -0.308658 0.831470 -0.461940
v -0.513280 -0.382683 -0.768178
v -0.392847 0.707107 -0.587938
v -0.461939 -0.555570 -0.691342
v -0.461939 0.555570 -0.691342
v -0.392847 -0.707107 -0.587938
v -0.513280 0.382683 -0.768178
v -0.318189 -0.555570 -0.768178
v -0.270598 -0.707107 -0.653282
v -0.318189 0.555570 -0.768178
v -0.353553 0.382683 -0.853554
v -0.212607 -0.831470 -0.513280
v -0.375330 0.195090 -0.906128
v -0.146446 -0.923880 -0.353554
v -0.382683 0.000000 -0.923880
v -0.074658 0.980785 -0.180240
v -0.146446 0.923880 -0.353554
v -0.074658 -0.980785 -0.180240
v -0.375330 -0.195090 -0.906128
v -0.212607 0.831470 -0.513280
v -0.353553 -0.382683 -0.853554
v -0.270598 0.707107 -0.653282
v -0.074658 0.923880 -0.375331
v -0.108386 0.831470 -0.544895
v -0.191341 -0.195090 -0.961940
v -0.180240 -0.382683 -0.906128
v -0.137949 0.707107 -0.693520
v -0.162211 -0.555570 -0.815493
v -0.162211 0.555570 -0.815493
v -0.137949 -0.707107 -0.693520
v -0.180240 0.382683 -0.906128
v -0.108386 -0.831470 -0.544895
v -0.191341 0.195090 -0.961940
v -0.074658 -0.923880 -0.375330
v -0.195090 0.000000 -0.980785
v -0.038060 0.980785 -0.191342
v -0.038060 -0.980785 -0.191342
v 0.000000 0.382683 -0.923880
v 0.000000 0.195090 -0.980785
v 0.000000 -0.831470 -0.555570
v 0.000000 -0.923880 -0.382684
v 0.000000 0.000000 -1.000000
v 0.000000 0.980785 -0.195091
v 0.000000 0.923880 -0.382684
v 0.000000 -0.980785 -0.195090
v 0.000000 -0.195090 -0.980785
v 0.000000 0.831470 -0.555570
v 0.000000 -0.382683 -0.923880
v 0.000000 0.707107 -0.707107
v 0.000000 -0.555570 -0.831470
v 0.000000 0.555570 -0.831470
v 0.000000 -0.707107 -0.707107
v 0.180240 -0.382683 -0.906128
v 0.162212 -0.555570 -0.815493
v 0.137950 0.707107 -0.693520
v 0.162212 0.555570 -0.815493
v 0.137950 -0.707107 -0.693520
v 0.180240 0.382683 -0.906128
v 0.108387 -0.831470 -0.544895
v 0.191342 0.195090 -0.961940
v 0.074658 -0.923880 -0.375330
v 0.195091 0.000000 -0.980785
v 0.038061 0.980785 -0.191342
v 0.074658 0.923880 -0.375330
v 0.038061 -0.980785 -0.191342
v 0.191342 -0.195090 -0.961940
v 0.108387 0.831470 -0.544895
v 0.146447 -0.923880 -0.353553
v 0.074658 -0.980785 -0.180240
v 0.382684 0.000000 -0.923880
v 0.375331 -0.195090 -0.906127
v 0.146447 0.923880 -0.353554
v 0.212608 0.831470 -0.513280
v 0.353554 -0.382683 -0.853554
v 0.270599 0.707107 -0.653282
v 0.318190 -0.555570 -0.768178
v 0.318190 0.555570 -0.768178
v 0.270599 -0.707107 -0.653282
v 0.353554 0.382683 -0.853553
v 0.212608 -0.831470 -0.513280
v 0.375331 0.195090 -0.906127
v 0.074658 0.980785 -0.180240
v 0.392848 -0.707107 -0.587938
v 0.308659 -0.831470 -0.461940
v 0.513280 0.382683 -0.768178
v 0.544895 0.195090 -0.815493
v 0.212608 -0.923880 -0.318190
v 0.555571 0.000000 -0.831470
v 0.108387 0.980785 -0.162212
v 0.212608 0.923880 -0.318190
v 0.108387 -0.980785 -0.162212
v 0.544895 -0.195090 -0.815493
v 0.308659 0.831470 -0.461940
v 0.513280 -0.382683 -0.768178
v 0.392848 0.707107 -0.587938
v 0.461940 -0.555570 -0.691342
v 0.461940 0.555570 -0.691342
v 0.653282 -0.382683 -0.653282
v 0.587938 -0.555570 -0.587938
v 0.500000 0.707107 -0.500000
v 0.587938 0.555570 -0.587938
v 0.500000 -0.707107 -0.500000
v 0.653282 0.382683 -0.653281
v 0.392848 -0.831470 -0.392847
v 0.693520 0.195090 -0.693520
v 0.270598 -0.923880 -0.270598
v 0.707107 0.000000 -0.707107
v 0.137950 0.980785 -0.137950
v 0.270599 0.923880 -0.270598
v 0.137950 -0.980785 -0.137950
v 0.693520 -0.195090 -0.693520
v 0.392848 0.831470 -0.392848
v 0.318190 -0.923880 -0.212608
v 0.162212 -0.980785 -0.108386
v 0.831470 0.000000 -0.555570
v 0.815493 -0.195090 -0.544895
v 0.318190 0.923880 -0.212608
v 0.461940 0.831470 -0.308658
v 0.768178 -0.382683 -0.513280
v 0.587938 0.707107 -0.392847
v 0.691342 -0.555570 -0.461940
v 0.691342 0.555570 -0.461940
v 0.587938 -0.707107 -0.392847
v 0.768178 0.382683 -0.513280
v 0.461940 -0.831470 -0.308658
v 0.815493 0.195090 -0.544895
v 0.162212 0.980785 -0.108386
v 0.653282 -0.707107 -0.270598
v 0.513280 -0.831470 -0.212607
v 0.853554 0.382683 -0.353553
v 0.906128 0.195090 -0.375330
v 0.353554 -0.923880 -0.146447
v 0.923880 0.000000 -0.382683
v 0.180240 0.980785 -0.074658
v 0.353554 0.923880 -0.146447
v 0.180240 -0.980785 -0.074658
v 0.906128 -0.195090 -0.375330
v 0.513280 0.831470 -0.212608
v 0.853554 -0.382683 -0.353553
v 0.653282 0.707107 -0.270598
v 0.768178 -0.555570 -0.318190
v 0.768178 0.555570 -0.318190
v 0.906128 -0.382683 -0.180240
v 0.815493 -0.555570 -0.162212
v 0.693520 0.707107 -0.137950
v 0.815493 0.555570 -0.162212
v 0.693520 -0.707107 -0.137950
v 0.906128 0.382683 -0.180240
v 0.544895 -0.831470 -0.108386
v 0.961940 0.195090 -0.191342
v 0.375331 -0.923880 -0.074658
v 0.980785 0.000000 -0.195090
v 0.191342 0.980785 -0.038060
v 0.375331 0.923880 -0.074658
v 0.191342 -0.980785 -0.038060
v 0.961940 -0.195090 -0.191342
v 0.544896 0.831470 -0.108386
v 0.195091 0.980785 0.000000
v 0.382684 0.923880 0.000000
v 0.382684 -0.923880 -0.000000
v 0.195091 -0.980785 -0.000000
v 1.000000 0.000000 0.000000
v 0.980785 -0.195090 -0.000000
v 0.555571 0.831470 0.000000
v 0.923880 -0.382683 -0.000000
v 0.707107 0.707107 0.000000
v 0.831470 -0.555570 -0.000000
v 0.831470 0.555570 0.000000
v 0.707107 -0.707107 -0.000000
v 0.923880 0.382683 0.000000
v 0.555571 -0.831470 -0.000000
v 0.980785 0.195090 0.000000
v 0.815493 0.555570 0.162212
v 0.906128 0.382683 0.180240
v 0.693520 -0.707107 0.137950
v 0.544895 -0.831470 0.108386
v 0.961940 0.195090 0.191342
v 0.375331 -0.923880 0.074658
v 0.980785 -0.000000 0.195090
v 0.191342 0.980785 0.038060
v 0.375331 0.923880 0.074658
v 0.191342 -0.980785 0.038060
v 0.961940 -0.195090 0.191342
v 0.544896 0.831470 0.108386
v 0.906128 -0.382683 0.180240
v 0.693520 0.707107 0.137950
v 0.815493 -0.555570 0.162212
v 0.906128 -0.195090 0.375330
v 0.853554 -0.382683 0.353553
v 0.513280 0.831470 0.212608
v 0.653282 0.707107 0.270598
v 0.768178 -0.555570 0.318190
v 0.768178 0.555570 0.318190
v 0.653282 -0.707107 0.270598
v 0.853554 0.382683 0.353554
v 0.513280 -0.831470 0.212608
v 0.906128 0.195090 0.375330
v 0.353554 -0.923880 0.146447
v 0.923880 -0.000000 0.382683
v 0.180240 0.980785 0.074658
v 0.353554 0.923880 0.146447
v 0.180240 -0.980785 0.074658
v 0.461940 -0.831470 0.308658
v 0.318190 -0.923880 0.212608
v 0.815493 0.195090 0.544895
v 0.831470 -0.000000 0.555570
v 0.162212 0.980785 0.108387
v 0.318190 0.923880 0.212608
v 0.162212 -0.980785 0.108386
v 0.815493 -0.195090 0.544895
v 0.461940 0.831470 0.308658
v 0.768178 -0.382683 0.513280
v 0.587938 0.707107 0.392848
v 0.691342 -0.555570 0.461940
v 0.691342 0.555570 0.461940
v 0.587938 -0.707107 0.392848
v 0.768178 0.382683 0.513280
v 0.587938 -0.555570 0.587938
v 0.500000 -0.707107 0.500000
v 0.587938 0.555570 0.587938
v 0.653282 0.382683 0.653282
v 0.392848 -0.831470 0.392848
v 0.693520 0.195090 0.693520
v 0.270598 -0.923880 0.270598
v 0.707107 -0.000000 0.707107
v 0.137950 0.980785 0.137950
v 0.270598 0.923880 0.270598
v 0.137950 -0.980785 0.137950
v 0.693520 -0.195090 0.693520
v 0.392848 0.831470 0.392848
v 0.653282 -0.382683 0.653282
v 0.500000 0.707107 0.500000
v 0.544895 -0.195090 0.815493
v 0.513280 -0.382683 0.768178
v 0.308659 0.831470 0.461940
v 0.392848 0.707107 0.587938
v 0.461940 -0.555570 0.691342
v 0.461940 0.555570 0.691342
v 0.392848 -0.707107 0.587938
v 0.513280 0.382683 0.768178
v 0.308659 -0.831470 0.461940
v 0.544895 0.195090 0.815493
v 0.212608 -0.923880 0.318190
v 0.555570 -0.000000 0.831469
v 0.108387 0.980785 0.162212
v 0.212608 0.923880 0.318190
v 0.108387 -0.980785 0.162212
v 0.212608 -0.831470 0.513280
v 0.146447 -0.923880 0.353553
v 0.375330 0.195090 0.906127
v 0.382683 -0.000000 0.923879
v 0.074658 0.980785 0.180240
v 0.146447 0.923880 0.353554
v 0.074658 -0.980785 0.180240
v 0.375330 -0.195090 0.906127
v 0.212608 0.831470 0.513280
v 0.353554 -0.382683 0.853553
v 0.270598 0.707107 0.653281
v 0.318190 -0.555570 0.768178
v 0.318190 0.555570 0.768178
v 0.270598 -0.707107 0.653281
v 0.353554 0.382683 0.853553
v 0.162212 -0.555570 0.815493
v 0.137950 -0.707107 0.693520
v 0.162212 0.555570 0.815493
v 0.180240 0.382683 0.906127
v 0.108387 -0.831470 0.544895
v 0.191342 0.195090 0.961940
v 0.074658 -0.923880 0.375330
v 0.195090 -0.000000 0.980785
v 0.038061 0.980785 0.191342
v 0.074658 0.923880 0.375330
v 0.038061 -0.980785 0.191342
v 0.191342 -0.195090 0.961940
v 0.108387 0.831470 0.544895
v 0.180240 -0.382683 0.906128
v 0.137950 0.707107 0.693520
v 0.000000 -0.195090 0.980785
v 0.000000 -0.382683 0.923880
v 0.000000 0.831470 0.555570
v 0.000000 0.707107 0.707107
v 0.000000 -0.555570 0.831469
v 0.000000 0.555570 0.831469
v 0.000000 -0.707107 0.707107
v 0.000000 0.382683 0.923879
v 0.000000 -0.831470 0.555570
v 0.000000 0.195090 0.980785
v 0.000000 -0.923880 0.382683
v 0.000000 -0.000000 1.000000
v 0.000000 0.980785 0.195090
v 0.000000 0.923880 0.382684
v 0.000000 -0.980785 0.195090
v -0.108386 -0.831470 0.544895
v -0.074658 -0.923880 0.375330
v -0.191342 0.195090 0.961939
v -0.195090 -0.000000 0.980785
v -0.038060 0.980785 0.191342
v -0.074658 0.923880 0.375330
v -0.038060 -0.980785 0.191342
v -0.191342 -0.195090 0.961939
v -0.108386 0.831470 0.544895
v -0.180240 -0.382683 0.906127
v -0.137949 0.707107 0.693520
v -0.162211 -0.555570 0.815493
v -0.162211 0.555570 0.815493
v -0.137949 -0.707107 0.693520
v -0.180240 0.382683 0.906127
v -0.270598 0.707107 0.653281
v -0.318189 0.555570 0.768177
v -0.318189 -0.555570 0.768177
v -0.270598 -0.707107 0.653281
v -0.353553 0.382683 0.853553
v -0.212607 -0.831470 0.513280
v -0.375330 0.195090 0.906127
v -0.146446 -0.923880 0.353553
v -0.382683 -0.000000 0.923879
v -0.074658 0.980785 0.180240
v -0.146446 0.923880 0.353553
v -0.074657 -0.980785 0.180240
v -0.375330 -0.195090 0.906127
v -0.212607 0.831470 0.513280
v -0.353553 -0.382683 0.853553
v -0.555570 -0.000000 0.831469
v -0.544895 -0.195090 0.815493
v -0.212607 0.923880 0.318190
v -0.308658 0.831470 0.461940
v -0.513280 -0.382683 0.768178
v -0.392847 0.707107 0.587938
v -0.461939 -0.555570 0.691341
v -0.461939 0.555570 0.691341
v -0.392847 -0.707107 0.587938
v -0.513280 0.382683 0.768178
v -0.308658 -0.831470 0.461940
v -0.544895 0.195090 0.815493
v -0.212607 -0.923880 0.318190
v -0.108386 0.980785 0.162212
v -0.108386 -0.980785 0.162212
v -0.500000 -0.707107 0.500000
v -0.392847 -0.831470 0.392847
v -0.653281 0.382683 0.653281
v -0.693519 0.195090 0.693519
v -0.270598 -0.923880 0.270598
v -0.707106 -0.000000 0.707106
v -0.137949 0.980785 0.137950
v -0.270598 0.923880 0.270598
v -0.137949 -0.980785 0.137950
v -0.693519 -0.195090 0.693519
v -0.392847 0.831470 0.392847
v -0.653281 -0.382683 0.653281
v -0.500000 0.707107 0.500000
v -0.587937 -0.555570 0.587937
v -0.587937 0.555570 0.587937
v -0.768178 -0.382683 0.513280
v -0.691341 -0.555570 0.461939
v -0.587937 0.707107 0.392847
v -0.691341 0.555570 0.461939
v -0.587937 -0.707107 0.392847
v -0.768177 0.382683 0.513280
v -0.461939 -0.831470 0.308658
v -0.815493 0.195090 0.544895
v -0.318189 -0.923880 0.212608
v -0.831469 -0.000000 0.555570
v -0.162211 0.980785 0.108386
v -0.318189 0.923880 0.212608
v -0.162211 -0.980785 0.108386
v -0.815493 -0.195090 0.544895
v -0.461939 0.831470 0.308658
v -0.353553 -0.923880 0.146447
v -0.180240 -0.980785 0.074658
v -0.923879 -0.000000 0.382683
v -0.906127 -0.195090 0.375330
v -0.353553 0.923880 0.146447
v -0.513280 0.831470 0.212607
v -0.853553 -0.382683 0.353553
v -0.653281 0.707107 0.270598
v -0.768177 -0.555570 0.318189
v -0.768177 0.555570 0.318189
v -0.653281 -0.707107 0.270598
v -0.853553 0.382683 0.353553
v -0.513280 -0.831470 0.212607
v -0.906127 0.195090 0.375330
v -0.180240 0.980785 0.074658
v -0.693520 -0.707107 0.137950
v -0.544895 -0.831470 0.108386
v -0.906127 0.382683 0.180240
v -0.961939 0.195090 0.191341
v -0.375330 -0.923880 0.074658
v -0.980784 -0.000000 0.195090
v -0.191341 0.980785 0.038060
v -0.375330 0.923880 0.074658
v -0.191341 -0.980785 0.038060
v -0.961939 -0.195090 0.191341
v -0.544895 0.831470 0.108386
v -0.906127 -0.382683 0.180240
v -0.693520 0.707107 0.137950
v -0.815492 -0.555570 0.162211
v -0.815492 0.555570 0.162211
v 0.000000 1.000000 0.000000
v 0.000000 -1.000000 -0.000000
vn -0.710135 -0.704031 0.000000
vn -0.833338 -0.552751 0.000000
vn -0.817316 -0.552751 -0.162572
vn -0.696493 -0.704031 -0.138524
vn -0.924741 0.380535 0.000000
vn -0.833338 0.552751 0.000000
vn -0.817316 0.552751 -0.162572
vn -0.906980 0.380535 -0.180395
vn -0.559771 -0.828639 0.000000
vn -0.548997 -0.828639 -0.109195
vn -0.980987 0.193915 0.000000
vn -0.962157 0.193915 -0.191382
vn -0.387860 -0.921690 0.000000
vn -0.380413 -0.921690 -0.075655
vn -0.999969 0.000000 0.000000
vn -0.980773 0.000000 -0.195074
vn -0.387860 0.921690 0.000000
vn -0.200964 0.979583 0.000000
vn -0.197089 0.979583 -0.039186
vn -0.380413 0.921690 -0.075655
vn -0.200964 -0.979583 0.000000
vn -0.197089 -0.979583 -0.039186
vn -0.980987 -0.193915 0.000000
vn -0.962157 -0.193915 -0.191382
vn -0.559771 0.828639 0.000000
vn -0.548997 0.828639 -0.109195
vn -0.924741 -0.380535 0.000000
vn -0.906980 -0.380535 -0.180395
vn -0.710135 0.704031 0.000000
vn -0.696493 0.704031 -0.138524
vn -0.517136 -0.828639 -0.214209
vn -0.358348 -0.921690 -0.148412
vn -0.906339 0.193915 -0.375408
vn -0.923856 0.000000 -0.382672
vn -0.185644 0.979583 -0.076876
vn -0.358348 0.921690 -0.148412
vn -0.185644 -0.979583 -0.076907
vn -0.906339 -0.193915 -0.375408
vn -0.517136 0.828639 -0.214209
vn -0.854366 -0.380535 -0.353862
vn -0.656056 0.704031 -0.271737
vn -0.769890 -0.552751 -0.318888
vn -0.769890 0.552751 -0.318888
vn -0.656056 -0.704031 -0.271737
vn -0.854366 0.380535 -0.353862
vn -0.692892 -0.552751 -0.462966
vn -0.590442 -0.704031 -0.394513
vn -0.692892 0.552751 -0.462966
vn -0.768914 0.380535 -0.513749
vn -0.465407 -0.828639 -0.310984
vn -0.815668 0.193915 -0.545000
vn -0.322489 -0.921690 -0.215491
vn -0.831446 0.000000 -0.555559
vn -0.167089 0.979583 -0.111637
vn -0.322489 0.921690 -0.215491
vn -0.167089 -0.979583 -0.111637
vn -0.815668 -0.193915 -0.545000
vn -0.465407 0.828639 -0.310984
vn -0.768914 -0.380535 -0.513749
vn -0.590442 0.704031 -0.394513
vn -0.693655 -0.193915 -0.693655
vn -0.653890 -0.380535 -0.653890
vn -0.395795 0.828639 -0.395795
vn -0.502121 0.704031 -0.502121
vn -0.589251 -0.552751 -0.589251
vn -0.589251 0.552751 -0.589251
vn -0.502121 -0.704031 -0.502121
vn -0.653890 0.380535 -0.653890
vn -0.395795 -0.828639 -0.395795
vn -0.693655 0.193915 -0.693655
vn -0.274270 -0.921690 -0.274270
vn -0.707083 0.000000 -0.707083
vn -0.142094 0.979583 -0.142094
vn -0.274270 0.921690 -0.274270
vn -0.142094 -0.979583 -0.142094
vn -0.310984 -0.828639 -0.465407
vn -0.215491 -0.921690 -0.322489
vn -0.545000 0.193915 -0.815668
vn -0.555559 0.000000 -0.831446
vn -0.111637 0.979583 -0.167089
vn -0.215491 0.921690 -0.322489
vn -0.111637 -0.979583 -0.167089
vn -0.545000 -0.193915 -0.815668
vn -0.310984 0.828639 -0.465407
vn -0.513749 -0.380535 -0.768914
vn -0.394513 0.704031 -0.590442
vn -0.462966 -0.552751 -0.692892
vn -0.462966 0.552751 -0.692892
vn -0.394513 -0.704031 -0.590442
vn -0.513749 0.380535 -0.768914
vn -0.318888 -0.552751 -0.769890
vn -0.271737 -0.704031 -0.656056
vn -0.318888 0.552751 -0.769890
vn -0.353862 0.380535 -0.854366
vn -0.214209 -0.828639 -0.517136
vn -0.375408 0.193915 -0.906339
vn -0.148412 -0.921690 -0.358348
vn -0.382672 0.000000 -0.923856
vn -0.076907 0.979583 -0.185644
vn -0.148412 0.921690 -0.358348
vn -0.076876 -0.979583 -0.185644
vn -0.375408 -0.193915 -0.906339
vn -0.214209 0.828639 -0.517136
vn -0.353862 -0.380535 -0.854366
vn -0.271737 0.704031 -0.656056
vn -0.075655 0.921690 -0.380413
vn -0.109195 0.828639 -0.548997
vn -0.191382 -0.193915 -0.962157
vn -0.180395 -0.380535 -0.906980
vn -0.138524 0.704031 -0.696493
vn -0.162572 -0.552751 -0.817316
vn -0.162572 0.552751 -0.817316
vn -0.138524 -0.704031 -0.696493
vn -0.180395 0.380535 -0.906980
vn -0.109195 -0.828639 -0.548997
vn -0.191382 0.193915 -0.962157
vn -0.075655 -0.921690 -0.380413
vn -0.195074 0.000000 -0.980773
vn -0.039186 0.979583 -0.197089
vn -0.039186 -0.979583 -0.197089
vn 0.000000 0.380535 -0.924741
vn 0.000000 0.193915 -0.980987
vn 0.000000 -0.828639 -0.559771
vn 0.000000 -0.921690 -0.387860
vn 0.000000 0.000000 -0.999969
vn 0.000000 0.979583 -0.200964
vn 0.000000 0.921690 -0.387860
vn 0.000000 -0.979583 -0.200964
vn 0.000000 -0.193915 -0.980987
vn 0.000000 0.828639 -0.559771
vn 0.000000 -0.380535 -0.924741
vn 0.000000 0.704031 -0.710135
vn 0.000000 -0.552751 -0.833338
vn 0.000000 0.552751 -0.833338
vn 0.000000 -0.704031 -0.710135
vn 0.180395 -0.380535 -0.906980
vn 0.162572 -0.552751 -0.817316
vn 0.138524 0.704031 -0.696493
vn 0.162572 0.552751 -0.817316
vn 0.138524 -0.704031 -0.696493
vn 0.180395 0.380535 -0.906980
vn 0.109195 -0.828639 -0.548997
vn 0.191382 0.193915 -0.962157
vn 0.075655 -0.921690 -0.380413
vn 0.195074 0.000000 -0.980773
vn 0.039186 0.979583 -0.197089
vn 0.075655 0.921690 -0.380413
vn 0.039186 -0.979583 -0.197089
vn 0.191382 -0.193915 -0.962157
vn 0.109195 0.828639 -0.548997
vn 0.148412 -0.921690 -0.358348
vn 0.076876 -0.979583 -0.185644
vn 0.382672 0.000000 -0.923856
vn 0.375408 -0.193915 -0.906339
vn 0.148412 0.921690 -0.358348
vn 0.214209 0.828639 -0.517136
vn 0.353893 -0.380535 -0.854366
vn 0.271737 0.704031 -0.656056
vn 0.318888 -0.552751 -0.769890
vn 0.318888 0.552751 -0.769890
vn 0.271737 -0.704031 -0.656056
vn 0.353893 0.380535 -0.854366
vn 0.214209 -0.828639 -0.517136
vn 0.375408 0.193915 -0.906339
vn 0.076876 0.979583 -0.185644
vn 0.394513 -0.704031 -0.590442
vn 0.310984 -0.828639 -0.465407
vn 0.513749 0.380535 -0.768914
vn 0.545000 0.193915 -0.815668
vn 0.215491 -0.921690 -0.322489
vn 0.555559 0.000000 -0.831446
vn 0.111637 0.979583 -0.167089
vn 0.215491 0.921690 -0.322489
vn 0.111637 -0.979583 -0.167089
vn 0.545000 -0.193915 -0.815668
vn 0.310984 0.828639 -0.465407
vn 0.513749 -0.380535 -0.768914
vn 0.394513 0.704031 -0.590442
vn 0.462966 -0.552751 -0.692892
vn 0.462966 0.552751 -0.692892
vn 0.653890 -0.380535 -0.653890
vn 0.589251 -0.552751 -0.589251
vn 0.502121 0.704031 -0.502121
vn 0.589251 0.552751 -0.589251
vn 0.502121 -0.704031 -0.502121
vn 0.653890 0.380535 -0.653890
vn 0.395795 -0.828639 -0.395795
vn 0.693655 0.193915 -0.693655
vn 0.274270 -0.921690 -0.274270
vn 0.707083 0.000000 -0.707083
vn 0.142094 0.979583 -0.142094
vn 0.274270 0.921690 -0.274270
vn 0.142094 -0.979583 -0.142094
vn 0.693655 -0.193915 -0.693655
vn 0.395795 0.828639 -0.395795
vn 0.322489 -0.921690 -0.215491
vn 0.167089 -0.979583 -0.111637
vn 0.831446 0.000000 -0.555559
vn 0.815668 -0.193915 -0.545000
vn 0.322489 0.921690 -0.215491
vn 0.465407 0.828639 -0.310984
vn 0.768914 -0.380535 -0.513749
vn 0.590442 0.704031 -0.394513
vn 0.692892 -0.552751 -0.462966
vn 0.692892 0.552751 -0.462966
vn 0.590442 -0.704031 -0.394513
vn 0.768914 0.380535 -0.513749
vn 0.465407 -0.828639 -0.310984
vn 0.815668 0.193915 -0.545000
vn 0.167089 0.979583 -0.111637
vn 0.656056 -0.704031 -0.271737
vn 0.517136 -0.828639 -0.214209
vn 0.854366 0.380535 -0.353862
vn 0.906339 0.193915 -0.375408
vn 0.358348 -0.921690 -0.148412
vn 0.923856 0.000000 -0.382672
vn 0.185644 0.979583 -0.076907
vn 0.358348 0.921690 -0.148412
vn 0.185644 -0.979583 -0.076907
vn 0.906339 -0.193915 -0.375408
vn 0.517136 0.828639 -0.214209
vn 0.854366 -0.380535 -0.353893
vn 0.656056 0.704031 -0.271737
vn 0.769890 -0.552751 -0.318888
vn 0.769890 0.552751 -0.318888
vn 0.906980 -0.380535 -0.180395
vn 0.817316 -0.552751 -0.162572
vn 0.696493 0.704031 -0.138524
vn 0.817316 0.552751 -0.162572
vn 0.696493 -0.704031 -0.138524
vn 0.906980 0.380535 -0.180395
vn 0.548997 -0.828639 -0.109195
vn 0.962157 0.193915 -0.191382
vn 0.380413 -0.921690 -0.075655
vn 0.980773 0.000000 -0.195074
vn 0.197089 0.979583 -0.039186
vn 0.380413 0.921690 -0.075655
vn 0.197089 -0.979583 -0.039186
vn 0.962157 -0.193915 -0.191382
vn 0.548997 0.828639 -0.109195
vn 0.200964 0.979583 0.000000
vn 0.387860 0.921690 0.000000
vn 0.387860 -0.921690 0.000000
vn 0.200964 -0.979583 0.000000
vn 0.999969 0.000000 0.000000
vn 0.980987 -0.193915 0.000000
vn 0.559771 0.828639 0.000000
vn 0.924741 -0.380535 0.000000
vn 0.710135 0.704031 0.000000
vn 0.833338 -0.552751 0.000000
vn 0.833338 0.552751 0.000000
vn 0.710135 -0.704031 0.000000
vn 0.924741 0.380535 0.000000
vn 0.559771 -0.828639 0.000000
vn 0.980987 0.193915 0.000000
vn 0.817316 0.552751 0.162572
vn 0.906980 0.380535 0.180395
vn 0.696493 -0.704031 0.138524
vn 0.548997 -0.828639 0.109195
vn 0.962157 0.193915 0.191382
vn 0.380413 -0.921690 0.075655
vn 0.980773 0.000000 0.195074
vn 0.197089 0.979583 0.039186
vn 0.380413 0.921690 0.075655
vn 0.197089 -0.979583 0.039186
vn 0.962157 -0.193915 0.191382
vn 0.548997 0.828639 0.109195
vn 0.906980 -0.380535 0.180395
vn 0.696493 0.704031 0.138524
vn 0.817316 -0.552751 0.162572
vn 0.906339 -0.193915 0.375408
vn 0.854366 -0.380535 0.353862
vn 0.517136 0.828639 0.214209
vn 0.656056 0.704031 0.271737
vn 0.769890 -0.552751 0.318888
vn 0.769890 0.552751 0.318888
vn 0.656056 -0.704031 0.271737
vn 0.854366 0.380535 0.353893
vn 0.517136 -0.828639 0.214209
vn 0.906339 0.193915 0.375408
vn 0.358348 -0.921690 0.148412
vn 0.923856 0.000000 0.382672
vn 0.185644 0.979583 0.076876
vn 0.358348 0.921690 0.148412
vn 0.185644 -0.979583 0.076907
vn 0.465407 -0.828639 0.310984
vn 0.322489 -0.921690 0.215491
vn 0.815668 0.193915 0.545000
vn 0.831446 0.000000 0.555559
vn 0.167089 0.979583 0.111637
vn 0.322489 0.921690 0.215491
vn 0.167089 -0.979583 0.111637
vn 0.815668 -0.193915 0.545000
vn 0.465407 0.828639 0.310984
vn 0.768914 -0.380535 0.513749
vn 0.590442 0.704031 0.394513
vn 0.692892 -0.552751 0.462966
vn 0.692892 0.552751 0.462966
vn 0.590442 -0.704031 0.394513
vn 0.768914 0.380535 0.513749
vn 0.589251 -0.552751 0.589251
vn 0.502121 -0.704031 0.502121
vn 0.589251 0.552751 0.589251
vn 0.653890 0.380535 0.653890
vn 0.395795 -0.828639 0.395795
vn 0.693655 0.193915 0.693655
vn 0.274270 -0.921690 0.274270
vn 0.707083 0.000000 0.707083
vn 0.142094 0.979583 0.142094
vn 0.274270 0.921690 0.274270
vn 0.142094 -0.979583 0.142094
vn 0.693655 -0.193915 0.693655
vn 0.395795 0.828639 0.395795
vn 0.653890 -0.380535 0.653890
vn 0.502121 0.704031 0.502121
vn 0.545000 -0.193915 0.815668
vn 0.513749 -0.380535 0.768914
vn 0.310984 0.828639 0.465407
vn 0.394513 0.704031 0.590442
vn 0.462966 -0.552751 0.692892
vn 0.462966 0.552751 0.692892
vn 0.394513 -0.704031 0.590442
vn 0.513749 0.380535 0.768914
vn 0.310984 -0.828639 0.465407
vn 0.545000 0.193915 0.815668
vn 0.215491 -0.921690 0.322489
vn 0.555559 0.000000 0.831446
vn 0.111637 0.979583 0.167089
vn 0.215491 0.921690 0.322489
vn 0.111637 -0.979583 0.167089
vn 0.214209 -0.828639 0.517136
vn 0.148412 -0.921690 0.358348
vn 0.375408 0.193915 0.906339
vn 0.382672 0.000000 0.923856
vn 0.076876 0.979583 0.185644
vn 0.148412 0.921690 0.358348
vn 0.076907 -0.979583 0.185644
vn 0.375408 -0.193915 0.906339
vn 0.214209 0.828639 0.517136
vn 0.353893 -0.380535 0.854366
vn 0.271737 0.704031 0.656056
vn 0.318888 -0.552751 0.769890
vn 0.318888 0.552751 0.769890
vn 0.271737 -0.704031 0.656056
vn 0.353862 0.380535 0.854366
vn 0.162572 -0.552751 0.817316
vn 0.138524 -0.704031 0.696493
vn 0.162572 0.552751 0.817316
vn 0.180395 0.380535 0.906980
vn 0.109195 -0.828639 0.548997
vn 0.191382 0.193915 0.962157
vn 0.075655 -0.921690 0.380413
vn 0.195074 0.000000 0.980773
vn 0.039186 0.979583 0.197089
vn 0.075655 0.921690 0.380413
vn 0.039186 -0.979583 0.197089
vn 0.191382 -0.193915 0.962157
vn 0.109195 0.828639 0.548997
vn 0.180395 -0.380535 0.906980
vn 0.138524 0.704031 0.696493
vn 0.000000 -0.193915 0.980987
vn 0.000000 -0.380535 0.924741
vn 0.000000 0.828639 0.559771
vn 0.000000 0.704031 0.710135
vn 0.000000 -0.552751 0.833338
vn 0.000000 0.552751 0.833338
vn 0.000000 -0.704031 0.710135
vn 0.000000 0.380535 0.924741
vn 0.000000 -0.828639 0.559771
vn 0.000000 0.193915 0.980987
vn 0.000000 -0.921690 0.387860
vn 0.000000 0.000000 1.000000
vn 0.000000 0.979583 0.200964
vn 0.000000 0.921690 0.387860
vn 0.000000 -0.979583 0.200964
vn -0.109195 -0.828639 0.548997
vn -0.075655 -0.921690 0.380413
vn -0.191382 0.193915 0.962157
vn -0.195074 0.000000 0.980773
vn -0.039186 0.979583 0.197089
vn -0.075655 0.921690 0.380413
vn -0.039186 -0.979583 0.197089
vn -0.191382 -0.193915 0.962157
vn -0.109195 0.828639 0.548997
vn -0.180395 -0.380535 0.906980
vn -0.138524 0.704031 0.696493
vn -0.162572 -0.552751 0.817316
vn -0.162572 0.552751 0.817316
vn -0.138524 -0.704031 0.696493
vn -0.180395 0.380535 0.906980
vn -0.271737 0.704031 0.656056
vn -0.318888 0.552751 0.769890
vn -0.318888 -0.552751 0.769890
vn -0.271737 -0.704031 0.656056
vn -0.353862 0.380535 0.854366
vn -0.214209 -0.828639 0.517136
vn -0.375408 0.193915 0.906339
vn -0.148412 -0.921690 0.358348
vn -0.382672 0.000000 0.923856
vn -0.076907 0.979583 0.185644
vn -0.148412 0.921690 0.358348
vn -0.076907 -0.979583 0.185644
vn -0.375408 -0.193915 0.906339
vn -0.214209 0.828639 0.517136
vn -0.353862 -0.380535 0.854366
vn -0.555559 0.000000 0.831446
vn -0.545000 -0.193915 0.815668
vn -0.215491 0.921690 0.322489
vn -0.310984 0.828639 0.465407
vn -0.513749 -0.380535 0.768883
vn -0.394513 0.704031 0.590442
vn -0.462966 -0.552751 0.692892
vn -0.462966 0.552751 0.692892
vn -0.394513 -0.704031 0.590442
vn -0.513749 0.380535 0.768914
vn -0.310984 -0.828639 0.465407
vn -0.545000 0.193915 0.815668
vn -0.215491 -0.921690 0.322489
vn -0.111637 0.979583 0.167089
vn -0.111637 -0.979583 0.167089
vn -0.502121 -0.704031 0.502121
vn -0.395795 -0.828639 0.395795
vn -0.653890 0.380535 0.653890
vn -0.693655 0.193915 0.693655
vn -0.274270 -0.921690 0.274270
vn -0.707083 0.000000 0.707083
vn -0.142094 0.979583 0.142094
vn -0.274270 0.921690 0.274270
vn -0.142094 -0.979583 0.142094
vn -0.693655 -0.193915 0.693655
vn -0.395795 0.828639 0.395795
vn -0.653890 -0.380535 0.653890
vn -0.502121 0.704031 0.502121
vn -0.589251 -0.552751 0.589251
vn -0.589251 0.552751 0.589251
vn -0.768883 -0.380535 0.513749
vn -0.692892 -0.552751 0.462966
vn -0.590442 0.704031 0.394513
vn -0.692892 0.552751 0.462966
vn -0.590442 -0.704031 0.394513
vn -0.768883 0.380535 0.513749
vn -0.465407 -0.828639 0.310984
vn -0.815668 0.193915 0.545000
vn -0.322489 -0.921690 0.215491
vn -0.831446 0.000000 0.555559
vn -0.167089 0.979583 0.111637
vn -0.322489 0.921690 0.215491
vn -0.167089 -0.979583 0.111637
vn -0.815668 -0.193915 0.545000
vn -0.465407 0.828639 0.310984
vn -0.358348 -0.921690 0.148412
vn -0.185644 -0.979583 0.076907
vn -0.923856 0.000000 0.382672
vn -0.906339 -0.193915 0.375408
vn -0.358348 0.921690 0.148412
vn -0.517136 0.828639 0.214209
vn -0.854366 -0.380535 0.353862
vn -0.656056 0.704031 0.271737
vn -0.769890 -0.552751 0.318888
vn -0.769890 0.552751 0.318888
vn -0.656056 -0.704031 0.271737
vn -0.854366 0.380535 0.353862
vn -0.517136 -0.828639 0.214209
vn -0.906339 0.193915 0.375408
vn -0.185644 0.979583 0.076907
vn -0.696493 -0.704031 0.138524
vn -0.548997 -0.828639 0.109195
vn -0.906980 0.380535 0.180395
vn -0.962157 0.193915 0.191382
vn -0.380413 -0.921690 0.075655
vn -0.980773 0.000000 0.195074
vn -0.197089 0.979583 0.039186
vn -0.380413 0.921690 0.075655
vn -0.197089 -0.979583 0.039186
vn -0.962157 -0.193915 0.191382
vn -0.548997 0.828639 0.109195
vn -0.906980 -0.380535 0.180395
vn -0.696493 0.704031 0.138524
vn -0.817316 -0.552751 0.162572
vn -0.817316 0.552751 0.162572
vn 0.000000 1.000000 0.000000
vn 0.000000 -1.000000 0.000000
s 1
f 1//1 2//2 3//3
f 1//1 3//3 4//4
f 5//5 6//6 7//7
f 5//5 7//7 8//8
f 9//9 1//1 4//4
f 9//9 4//4 10//10
f 11//11 5//5 8//8
f 11//11 8//8 12//12
f 13//13 9//9 10//10
f 13//13 10//10 14//14
f 15//15 11//11 12//12
f 15//15 12//12 16//16
f 17//17 18//18 19//19
f 17//17 19//19 20//20
f 21//21 13//13 14//14
f 21//21 14//14 22//22
f 23//23 15//15 16//16
f 23//23 16//16 24//24
f 25//25 17//17 20//20
f 25//25 20//20 26//26
f 27//27 23//23 24//24
f 27//27 24//24 28//28
f 29//29 25//25 26//26
f 29//29 26//26 30//30
f 2//2 27//27 28//28
f 2//2 28//28 3//3
f 6//6 29//29 30//30
f 6//6 30//30 7//7
f 14//14 10//10 31//31
f 14//14 31//31 32//32
f 16//16 12//12 33//33
f 16//16 33//33 34//34
f 20//20 19//19 35//35
f 20//20 35//35 36//36
f 22//22 14//14 32//32
f 22//22 32//32 37//37
f 24//24 16//16 34//34
f 24//24 34//34 38//38
f 26//26 20//20 36//36
f 26//26 36//36 39//39
f 28//28 24//24 38//38
f 28//28 38//38 40//40
f 30//30 26//26 39//39
f 30//30 39//39 41//41
f 3//3 28//28 40//40
f 3//3 40//40 42//42
f 7//7 30//30 41//41
f 7//7 41//41 43//43
f 4//4 3//3 42//42
f 4//4 42//42 44//44
f 8//8 7//7 43//43
f 8//8 43//43 45//45
f 10//10 4//4 44//44
f 10//10 44//44 31//31
f 12//12 8//8 45//45
f 12//12 45//45 33//33
f 44//44 42//42 46//46
f 44//44 46//46 47//47
f 45//45 43//43 48//48
f 45//45 48//48 49//49
f 31//31 44//44 47//47
f 31//31 47//47 50//50
f 33//33 45//45 49//49
f 33//33 49//49 51//51
f 32//32 31//31 50//50
f 32//32 50//50 52//52
f 34//34 33//33 51//51
f 34//34 51//51 53//53
f 36//36 35//35 54//54
f 36//36 54//54 55//55
f 37//37 32//32 52//52
f 37//37 52//52 56//56
f 38//38 34//34 53//53
f 38//38 53//53 57//57
f 39//39 36//36 55//55
f 39//39 55//55 58//58
f 40//40 38//38 57//57
f 40//40 57//57 59//59
f 41//41 39//39 58//58
f 41//41 58//58 60//60
f 42//42 40//40 59//59
f 42//42 59//59 46//46
f 43//43 41//41 60//60
f 43//43 60//60 48//48
f 59//59 57//57 61//61
f 59//59 61//61 62//62
f 60//60 58//58 63//63
f 60//60 63//63 64//64
f 46//46 59//59 62//62
f 46//46 62//62 65//65
f 48//48 60//60 64//64
f 48//48 64//64 66//66
f 47//47 46//46 65//65
f 47//47 65//65 67//67
f 49//49 48//48 66//66
f 49//49 66//66 68//68
f 50//50 47//47 67//67
f 50//50 67//67 69//69
f 51//51 49//49 68//68
f 51//51 68//68 70//70
f 52//52 50//50 69//69
f 52//52 69//69 71//71
f 53//53 51//51 70//70
f 53//53 70//70 72//72
f 55//55 54//54 73//73
f 55//55 73//73 74//74
f 56//56 52//52 71//71
f 56//56 71//71 75//75
f 57//57 53//53 72//72
f 57//57 72//72 61//61
f 58//58 55//55 74//74
f 58//58 74//74 63//63
f 71//71 69//69 76//76
f 71//71 76//76 77//77
f 72//72 70//70 78//78
f 72//72 78//78 79//79
f 74//74 73//73 80//80
f 74//74 80//80 81//81
f 75//75 71//71 77//77
f 75//75 77//77 82//82
f 61//61 72//72 79//79
f 61//61 79//79 83//83
f 63//63 74//74 81//81
f 63//63 81//81 84//84
f 62//62 61//61 83//83
f 62//62 83//83 85//85
f 64//64 63//63 84//84
f 64//64 84//84 86//86
f 65//65 62//62 85//85
f 65//65 85//85 87//87
f 66//66 64//64 86//86
f 66//66 86//86 88//88
f 67//67 65//65 87//87
f 67//67 87//87 89//89
f 68//68 66//66 88//88
f 68//68 88//88 90//90
f 69//69 67//67 89//89
f 69//69 89//89 76//76
f 70//70 68//68 90//90
f 70//70 90//90 78//78
f 89//89 87//87 91//91
f 89//89 91//91 92//92
f 90//90 88//88 93//93
f 90//90 93//93 94//94
f 76//76 89//89 92//92
f 76//76 92//92 95//95
f 78//78 90//90 94//94
f 78//78 94//94 96//96
f 77//77 76//76 95//95
f 77//77 95//95 97//97
f 79//79 78//78 96//96
f 79//79 96//96 98//98
f 81//81 80//80 99//99
f 81//81 99//99 100//100
f 82//82 77//77 97//97
f 82//82 97//97 101//101
f 83//83 79//79 98//98
f 83//83 98//98 102//102
f 84//84 81//81 100//100
f 84//84 100//100 103//103
f 85//85 83//83 102//102
f 85//85 102//102 104//104
f 86//86 84//84 103//103
f 86//86 103//103 105//105
f 87//87 85//85 104//104
f 87//87 104//104 91//91
f 88//88 86//86 105//105
f 88//88 105//105 93//93
f 103//103 100//100 106//106
f 103//103 106//106 107//107
f 104//104 102//102 108//108
f 104//104 108//108 109//109
f 105//105 103//103 107//107
f 105//105 107//107 110//110
f 91//91 104//104 109//109
f 91//91 109//109 111//111
f 93//93 105//105 110//110
f 93//93 110//110 112//112
f 92//92 91//91 111//111
f 92//92 111//111 113//113
f 94//94 93//93 112//112
f 94//94 112//112 114//114
f 95//95 92//92 113//113
f 95//95 113//113 115//115
f 96//96 94//94 114//114
f 96//96 114//114 116//116
f 97//97 95//95 115//115
f 97//97 115//115 117//117
f 98//98 96//96 116//116
f 98//98 116//116 118//118
f 100//100 99//99 119//119
f 100//100 119//119 106//106
f 101//101 97//97 117//117
f 101//101 117//117 120//120
f 102//102 98//98 118//118
f 102//102 118//118 108//108
f 116//116 114//114 121//121
f 116//116 121//121 122//122
f 117//117 115//115 123//123
f 117//117 123//123 124//124
f 118//118 116//116 122//122
f 118//118 122//122 125//125
f 106//106 119//119 126//126
f 106//106 126//126 127//127
f 120//120 117//117 124//124
f 120//120 124//124 128//128
f 108//108 118//118 125//125
f 108//108 125//125 129//129
f 107//107 106//106 127//127
f 107//107 127//127 130//130
f 109//109 108//108 129//129
f 109//109 129//129 131//131
f 110//110 107//107 130//130
f 110//110 130//130 132//132
f 111//111 109//109 131//131
f 111//111 131//131 133//133
f 112//112 110//110 132//132
f 112//112 132//132 134//134
f 113//113 111//111 133//133
f 113//113 133//133 135//135
f 114//114 112//112 134//134
f 114//114 134//134 121//121
f 115//115 113//113 135//135
f 115//115 135//135 123//123
f 133//133 131//131 136//136
f 133//133 136//136 137//137
f 134//134 132//132 138//138
f 134//134 138//138 139//139
f 135//135 133//133 137//137
f 135//135 137//137 140//140
f 121//121 134//134 139//139
f 121//121 139//139 141//141
f 123//123 135//135 140//140
f 123//123 140//140 142//142
f 122//122 121//121 141//141
f 122//122 141//141 143//143
f 124//124 123//123 142//142
f 124//124 142//142 144//144
f 125//125 122//122 143//143
f 125//125 143//143 145//145
f 127//127 126//126 146//146
f 127//127 146//146 147//147
f 128//128 124//124 144//144
f 128//128 144//144 148//148
f 129//129 125//125 145//145
f 129//129 145//145 149//149
f 130//130 127//127 147//147
f 130//130 147//147 150//150
f 131//131 129//129 149//149
f 131//131 149//149 136//136
f 132//132 130//130 150//150
f 132//132 150//150 138//138
f 148//148 144//144 151//151
f 148//148 151//151 152//152
f 149//149 145//145 153//153
f 149//149 153//153 154//154
f 150//150 147//147 155//155
f 150//150 155//155 156//156
f 136//136 149//149 154//154
f 136//136 154//154 157//157
f 138//138 150//150 156//156
f 138//138 156//156 158//158
f 137//137 136//136 157//157
f 137//137 157//157 159//159
f 139//139 138//138 158//158
f 139//139 158//158 160//160
f 140//140 137//137 159//159
f 140//140 159//159 161//161
f 141//141 139//139 160//160
f 141//141 160//160 162//162
f 142//142 140//140 161//161
f 142//142 161//161 163//163
f 143//143 141//141 162//162
f 143//143 162//162 164//164
f 144//144 142//142 163//163
f 144//144 163//163 151//151
f 145//145 143//143 164//164
f 145//145 164//164 153//153
f 147//147 146//146 165//165
f 147//147 165//165 155//155
f 163//163 161//161 166//166
f 163//163 166//166 167//167
f 164//164 162//162 168//168
f 164//164 168//168 169//169
f 151//151 163//163 167//167
f 151//151 167//167 170//170
f 153//153 164//164 169//169
f 153//153 169//169 171//171
f 155//155 165//165 172//172
f 155//155 172//172 173//173
f 152//152 151//151 170//170
f 152//152 170//170 174//174
f 154//154 153//153 171//171
f 154//154 171//171 175//175
f 156//156 155//155 173//173
f 156//156 173//173 176//176
f 157//157 154//154 175//175
f 157//157 175//175 177//177
f 158//158 156//156 176//176
f 158//158 176//176 178//178
f 159//159 157//157 177//177
f 159//159 177//177 179//179
f 160//160 158//158 178//178
f 160//160 178//178 180//180
f 161//161 159//159 179//179
f 161//161 179//179 166//166
f 162//162 160//160 180//180
f 162//162 180//180 168//168
f 179//179 177//177 181//181
f 179//179 181//181 182//182
f 180//180 178//178 183//183
f 180//180 183//183 184//184
f 166//166 179//179 182//182
f 166//166 182//182 185//185
f 168//168 180//180 184//184
f 168//168 184//184 186//186
f 167//167 166//166 185//185
f 167//167 185//185 187//187
f 169//169 168//168 186//186
f 169//169 186//186 188//188
f 170//170 167//167 187//187
f 170//170 187//187 189//189
f 171//171 169//169 188//188
f 171//171 188//188 190//190
f 173//173 172//172 191//191
f 173//173 191//191 192//192
f 174//174 170//170 189//189
f 174//174 189//189 193//193
f 175//175 171//171 190//190
f 175//175 190//190 194//194
f 176//176 173//173 192//192
f 176//176 192//192 195//195
f 177//177 175//175 194//194
f 177//177 194//194 181//181
f 178//178 176//176 195//195
f 178//178 195//195 183//183
f 193//193 189//189 196//196
f 193//193 196//196 197//197
f 194//194 190//190 198//198
f 194//194 198//198 199//199
f 195//195 192//192 200//200
f 195//195 200//200 201//201
f 181//181 194//194 199//199
f 181//181 199//199 202//202
f 183//183 195//195 201//201
f 183//183 201//201 203//203
f 182//182 181//181 202//202
f 182//182 202//202 204//204
f 184//184 183//183 203//203
f 184//184 203//203 205//205
f 185//185 182//182 204//204
f 185//185 204//204 206//206
f 186//186 184//184 205//205
f 186//186 205//205 207//207
f 187//187 185//185 206//206
f 187//187 206//206 208//208
f 188//188 186//186 207//207
f 188//188 207//207 209//209
f 189//189 187//187 208//208
f 189//189 208//208 196//196
f 190//190 188//188 209//209
f 190//190 209//209 198//198
f 192//192 191//191 210//210
f 192//192 210//210 200//200
f 208//208 206//206 211//211
f 208//208 211//211 212//212
f 209//209 207//207 213//213
f 209//209 213//213 214//214
f 196//196 208//208 212//212
f 196//196 212//212 215//215
f 198//198 209//209 214//214
f 198//198 214//214 216//216
f 200//200 210//210 217//217
f 200//200 217//217 218//218
f 197//197 196//196 215//215
f 197//197 215//215 219//219
f 199//199 198//198 216//216
f 199//199 216//216 220//220
f 201//201 200//200 218//218
f 201//201 218//218 221//221
f 202//202 199//199 220//220
f 202//202 220//220 222//222
f 203//203 201//201 221//221
f 203//203 221//221 223//223
f 204//204 202//202 222//222
f 204//204 222//222 224//224
f 205//205 203//203 223//223
f 205//205 223//223 225//225
f 206//206 204//204 224//224
f 206//206 224//224 211//211
f 207//207 205//205 225//225
f 207//207 225//225 213//213
f 224//224 222//222 226//226
f 224//224 226//226 227//227
f 225//225 223//223 228//228
f 225//225 228//228 229//229
f 211//211 224//224 227//227
f 211//211 227//227 230//230
f 213//213 225//225 229//229
f 213//213 229//229 231//231
f 212//212 211//211 230//230
f 212//212 230//230 232//232
f 214//214 213//213 231//231
f 214//214 231//231 233//233
f 215//215 212//212 232//232
f 215//215 232//232 234//234
f 216//216 214//214 233//233
f 216//216 233//233 235//235
f 218//218 217//217 236//236
f 218//218 236//236 237//237
f 219//219 215//215 234//234
f 219//219 234//234 238//238
f 220//220 216//216 235//235
f 220//220 235//235 239//239
f 221//221 218//218 237//237
f 221//221 237//237 240//240
f 222//222 220//220 239//239
f 222//222 239//239 226//226
f 223//223 221//221 240//240
f 223//223 240//240 228//228
f 237//237 236//236 241//241
f 237//237 241//241 242//242
f 238//238 234//234 243//243
f 238//238 243//243 244//244
f 239//239 235//235 245//245
f 239//239 245//245 246//246
f 240//240 237//237 242//242
f 240//240 242//242 247//247
f 226//226 239//239 246//246
f 226//226 246//246 248//248
f 228//228 240//240 247//247
f 228//228 247//247 249//249
f 227//227 226//226 248//248
f 227//227 248//248 250//250
f 229//229 228//228 249//249
f 229//229 249//249 251//251
f 230//230 227//227 250//250
f 230//230 250//250 252//252
f 231//231 229//229 251//251
f 231//231 251//251 253//253
f 232//232 230//230 252//252
f 232//232 252//252 254//254
f 233//233 231//231 253//253
f 233//233 253//253 255//255
f 234//234 232//232 254//254
f 234//234 254//254 243//243
f 235//235 233//233 255//255
f 235//235 255//255 245//245
f 253//253 251//251 256//256
f 253//253 256//256 257//257
f 254//254 252//252 258//258
f 254//254 258//258 259//259
f 255//255 253//253 257//257
f 255//255 257//257 260//260
f 243//243 254//254 259//259
f 243//243 259//259 261//261
f 245//245 255//255 260//260
f 245//245 260//260 262//262
f 242//242 241//241 263//263
f 242//242 263//263 264//264
f 244//244 243//243 261//261
f 244//244 261//261 265//265
f 246//246 245//245 262//262
f 246//246 262//262 266//266
f 247//247 242//242 264//264
f 247//247 264//264 267//267
f 248//248 246//246 266//266
f 248//248 266//266 268//268
f 249//249 247//247 267//267
f 249//249 267//267 269//269
f 250//250 248//248 268//268
f 250//250 268//268 270//270
f 251//251 249//249 269//269
f 251//251 269//269 256//256
f 252//252 250//250 270//270
f 252//252 270//270 258//258
f 268//268 266//266 271//271
f 268//268 271//271 272//272
f 269//269 267//267 273//273
f 269//269 273//273 274//274
f 270//270 268//268 272//272
f 270//270 272//272 275//275
f 256//256 269//269 274//274
f 256//256 274//274 276//276
f 258//258 270//270 275//275
f 258//258 275//275 277//277
f 257//257 256//256 276//276
f 257//257 276//276 278//278
f 259//259 258//258 277//277
f 259//259 277//277 279//279
f 260//260 257//257 278//278
f 260//260 278//278 280//280
f 261//261 259//259 279//279
f 261//261 279//279 281//281
f 262//262 260//260 280//280
f 262//262 280//280 282//282
f 264//264 263//263 283//283
f 264//264 283//283 284//284
f 265//265 261//261 281//281
f 265//265 281//281 285//285
f 266//266 262//262 282//282
f 266//266 282//282 271//271
f 267//267 264//264 284//284
f 267//267 284//284 273//273
f 281//281 279//279 286//286
f 281//281 286//286 287//287
f 282//282 280//280 288//288
f 282//282 288//288 289//289
f 284//284 283//283 290//290
f 284//284 290//290 291//291
f 285//285 281//281 287//287
f 285//285 287//287 292//292
f 271//271 282//282 289//289
f 271//271 289//289 293//293
f 273//273 284//284 291//291
f 273//273 291//291 294//294
f 272//272 271//271 293//293
f 272//272 293//293 295//295
f 274//274 273//273 294//294
f 274//274 294//294 296//296
f 275//275 272//272 295//295
f 275//275 295//295 297//297
f 276//276 274//274 296//296
f 276//276 296//296 298//298
f 277//277 275//275 297//297
f 277//277 297//297 299//299
f 278//278 276//276 298//298
f 278//278 298//298 300//300
f 279//279 277//277 299//299
f 279//279 299//299 286//286
f 280//280 278//278 300//300
f 280//280 300//300 288//288
f 299//299 297//297 301//301
f 299//299 301//301 302//302
f 300//300 298//298 303//303
f 300//300 303//303 304//304
f 286//286 299//299 302//302
f 286//286 302//302 305//305
f 288//288 300//300 304//304
f 288//288 304//304 306//306
f 287//287 286//286 305//305
f 287//287 305//305 307//307
f 289//289 288//288 306//306
f 289//289 306//306 308//308
f 291//291 290//290 309//309
f 291//291 309//309 310//310
f 292//292 287//287 307//307
f 292//292 307//307 311//311
f 293//293 289//289 308//308
f 293//293 308//308 312//312
f 294//294 291//291 310//310
f 294//294 310//310 313//313
f 295//295 293//293 312//312
f 295//295 312//312 314//314
f 296//296 294//294 313//313
f 296//296 313//313 315//315
f 297//297 295//295 314//314
f 297//297 314//314 301//301
f 298//298 296//296 315//315
f 298//298 315//315 303//303
f 314//314 312//312 316//316
f 314//314 316//316 317//317
f 315//315 313//313 318//318
f 315//315 318//318 319//319
f 301//301 314//314 317//317
f 301//301 317//317 320//320
f 303//303 315//315 319//319
f 303//303 319//319 321//321
f 302//302 301//301 320//320
f 302//302 320//320 322//322
f 304//304 303//303 321//321
f 304//304 321//321 323//323
f 305//305 302//302 322//322
f 305//305 322//322 324//324
f 306//306 304//304 323//323
f 306//306 323//323 325//325
f 307//307 305//305 324//324
f 307//307 324//324 326//326
f 308//308 306//306 325//325
f 308//308 325//325 327//327
f 310//310 309//309 328//328
f 310//310 328//328 329//329
f 311//311 307//307 326//326
f 311//311 326//326 330//330
f 312//312 308//308 327//327
f 312//312 327//327 316//316
f 313//313 310//310 329//329
f 313//313 329//329 318//318
f 326//326 324//324 331//331
f 326//326 331//331 332//332
f 327//327 325//325 333//333
f 327//327 333//333 334//334
f 329//329 328//328 335//335
f 329//329 335//335 336//336
f 330//330 326//326 332//332
f 330//330 332//332 337//337
f 316//316 327//327 334//334
f 316//316 334//334 338//338
f 318//318 329//329 336//336
f 318//318 336//336 339//339
f 317//317 316//316 338//338
f 317//317 338//338 340//340
f 319//319 318//318 339//339
f 319//319 339//339 341//341
f 320//320 317//317 340//340
f 320//320 340//340 342//342
f 321//321 319//319 341//341
f 321//321 341//341 343//343
f 322//322 320//320 342//342
f 322//322 342//342 344//344
f 323//323 321//321 343//343
f 323//323 343//343 345//345
f 324//324 322//322 344//344
f 324//324 344//344 331//331
f 325//325 323//323 345//345
f 325//325 345//345 333//333
f 344//344 342//342 346//346
f 344//344 346//346 347//347
f 345//345 343//343 348//348
f 345//345 348//348 349//349
f 331//331 344//344 347//347
f 331//331 347//347 350//350
f 333//333 345//345 349//349
f 333//333 349//349 351//351
f 332//332 331//331 350//350
f 332//332 350//350 352//352
f 334//334 333//333 351//351
f 334//334 351//351 353//353
f 336//336 335//335 354//354
f 336//336 354//354 355//355
f 337//337 332//332 352//352
f 337//337 352//352 356//356
f 338//338 334//334 353//353
f 338//338 353//353 357//357
f 339//339 336//336 355//355
f 339//339 355//355 358//358
f 340//340 338//338 357//357
f 340//340 357//357 359//359
f 341//341 339//339 358//358
f 341//341 358//358 360//360
f 342//342 340//340 359//359
f 342//342 359//359 346//346
f 343//343 341//341 360//360
f 343//343 360//360 348//348
f 359//359 357//357 361//361
f 359//359 361//361 362//362
f 360//360 358//358 363//363
f 360//360 363//363 364//364
f 346//346 359//359 362//362
f 346//346 362//362 365//365
f 348//348 360//360 364//364
f 348//348 364//364 366//366
f 347//347 346//346 365//365
f 347//347 365//365 367//367
f 349//349 348//348 366//366
f 349//349 366//366 368//368
f 350//350 347//347 367//367
f 350//350 367//367 369//369
f 351//351 349//349 368//368
f 351//351 368//368 370//370
f 352//352 350//350 369//369
f 352//352 369//369 371//371
f 353//353 351//351 370//370
f 353//353 370//370 372//372
f 355//355 354//354 373//373
f 355//355 373//373 374//374
f 356//356 352//352 371//371
f 356//356 371//371 375//375
f 357//357 353//353 372//372
f 357//357 372//372 361//361
f 358//358 355//355 374//374
f 358//358 374//374 363//363
f 371//371 369//369 376//376
f 371//371 376//376 377//377
f 372//372 370//370 378//378
f 372//372 378//378 379//379
f 374//374 373//373 380//380
f 374//374 380//380 381//381
f 375//375 371//371 377//377
f 375//375 377//377 382//382
f 361//361 372//372 379//379
f 361//361 379//379 383//383
f 363//363 374//374 381//381
f 363//363 381//381 384//384
f 362//362 361//361 383//383
f 362//362 383//383 385//385
f 364//364 363//363 384//384
f 364//364 384//384 386//386
f 365//365 362//362 385//385
f 365//365 385//385 387//387
f 366//366 364//364 386//386
f 366//366 386//386 388//388
f 367//367 365//365 387//387
f 367//367 387//387 389//389
f 368//368 366//366 388//388
f 368//368 388//388 390//390
f 369//369 367//367 389//389
f 369//369 389//389 376//376
f 370//370 368//368 390//390
f 370//370 390//390 378//378
f 388//388 386//386 391//391
f 388//388 391//391 392//392
f 389//389 387//387 393//393
f 389//389 393//393 394//394
f 390//390 388//388 392//392
f 390//390 392//392 395//395
f 376//376 389//389 394//394
f 376//376 394//394 396//396
f 378//378 390//390 395//395
f 378//378 395//395 397//397
f 377//377 376//376 396//396
f 377//377 396//396 398//398
f 379//379 378//378 397//397
f 379//379 397//397 399//399
f 381//381 380//380 400//400
f 381//381 400//400 401//401
f 382//382 377//377 398//398
f 382//382 398//398 402//402
f 383//383 379//379 399//399
f 383//383 399//399 403//403
f 384//384 381//381 401//401
f 384//384 401//401 404//404
f 385//385 383//383 403//403
f 385//385 403//403 405//405
f 386//386 384//384 404//404
f 386//386 404//404 391//391
f 387//387 385//385 405//405
f 387//387 405//405 393//393
f 403//403 399//399 406//406
f 403//403 406//406 407//407
f 404//404 401//401 408//408
f 404//404 408//408 409//409
f 405//405 403//403 407//407
f 405//405 407//407 410//410
f 391//391 404//404 409//409
f 391//391 409//409 411//411
f 393//393 405//405 410//410
f 393//393 410//410 412//412
f 392//392 391//391 411//411
f 392//392 411//411 413//413
f 394//394 393//393 412//412
f 394//394 412//412 414//414
f 395//395 392//392 413//413
f 395//395 413//413 415//415
f 396//396 394//394 414//414
f 396//396 414//414 416//416
f 397//397 395//395 415//415
f 397//397 415//415 417//417
f 398//398 396//396 416//416
f 398//398 416//416 418//418
f 399//399 397//397 417//417
f 399//399 417//417 406//406
f 401//401 400//400 419//419
f 401//401 419//419 408//408
f 402//402 398//398 418//418
f 402//402 418//418 420//420
f 416//416 414//414 421//421
f 416//416 421//421 422//422
f 417//417 415//415 423//423
f 417//417 423//423 424//424
f 418//418 416//416 422//422
f 418//418 422//422 425//425
f 406//406 417//417 424//424
f 406//406 424//424 426//426
f 408//408 419//419 427//427
f 408//408 427//427 428//428
f 420//420 418//418 425//425
f 420//420 425//425 429//429
f 407//407 406//406 426//426
f 407//407 426//426 430//430
f 409//409 408//408 428//428
f 409//409 428//428 431//431
f 410//410 407//407 430//430
f 410//410 430//430 432//432
f 411//411 409//409 431//431
f 411//411 431//431 433//433
f 412//412 410//410 432//432
f 412//412 432//432 434//434
f 413//413 411//411 433//433
f 413//413 433//433 435//435
f 414//414 412//412 434//434
f 414//414 434//434 421//421
f 415//415 413//413 435//435
f 415//415 435//435 423//423
f 434//434 432//432 436//436
f 434//434 436//436 437//437
f 435//435 433//433 438//438
f 435//435 438//438 439//439
f 421//421 434//434 437//437
f 421//421 437//437 440//440
f 423//423 435//435 439//439
f 423//423 439//439 441//441
f 422//422 421//421 440//440
f 422//422 440//440 442//442
f 424//424 423//423 441//441
f 424//424 441//441 443//443
f 425//425 422//422 442//442
f 425//425 442//442 444//444
f 426//426 424//424 443//443
f 426//426 443//443 445//445
f 428//428 427//427 446//446
f 428//428 446//446 447//447
f 429//429 425//425 444//444
f 429//429 444//444 448//448
f 430//430 426//426 445//445
f 430//430 445//445 449//449
f 431//431 428//428 447//447
f 431//431 447//447 450//450
f 432//432 430//430 449//449
f 432//432 449//449 436//436
f 433//433 431//431 450//450
f 433//433 450//450 438//438
f 448//448 444//444 451//451
f 448//448 451//451 452//452
f 449//449 445//445 453//453
f 449//449 453//453 454//454
f 450//450 447//447 455//455
f 450//450 455//455 456//456
f 436//436 449//449 454//454
f 436//436 454//454 457//457
f 438//438 450//450 456//456
f 438//438 456//456 458//458
f 437//437 436//436 457//457
f 437//437 457//457 459//459
f 439//439 438//438 458//458
f 439//439 458//458 460//460
f 440//440 437//437 459//459
f 440//440 459//459 461//461
f 441//441 439//439 460//460
f 441//441 460//460 462//462
f 442//442 440//440 461//461
f 442//442 461//461 463//463
f 443//443 441//441 462//462
f 443//443 462//462 464//464
f 444//444 442//442 463//463
f 444//444 463//463 451//451
f 445//445 443//443 464//464
f 445//445 464//464 453//453
f 447//447 446//446 465//465
f 447//447 465//465 455//455
f 463//463 461//461 466//466
f 463//463 466//466 467//467
f 464//464 462//462 468//468
f 464//464 468//468 469//469
f 451//451 463//463 467//467
f 451//451 467//467 470//470
f 453//453 464//464 469//469
f 453//453 469//469 471//471
f 455//455 465//465 472//472
f 455//455 472//472 473//473
f 452//452 451//451 470//470
f 452//452 470//470 474//474
f 454//454 453//453 471//471
f 454//454 471//471 475//475
f 456//456 455//455 473//473
f 456//456 473//473 476//476
f 457//457 454//454 475//475
f 457//457 475//475 477//477
f 458//458 456//456 476//476
f 458//458 476//476 478//478
f 459//459 457//457 477//477
f 459//459 477//477 479//479
f 460//460 458//458 478//478
f 460//460 478//478 480//480
f 461//461 459//459 479//479
f 461//461 479//479 466//466
f 462//462 460//460 480//480
f 462//462 480//480 468//468
f 18//18 481//481 19//19
f 482//482 21//21 22//22
f 482//482 22//22 37//37
f 19//19 481//481 35//35
f 35//35 481//481 54//54
f 482//482 37//37 56//56
f 482//482 56//56 75//75
f 54//54 481//481 73//73
f 482//482 75//75 82//82
f 73//73 481//481 80//80
f 80//80 481//481 99//99
f 482//482 82//82 101//101
f 482//482 101//101 120//120
f 99//99 481//481 119//119
f 119//119 481//481 126//126
f 482//482 120//120 128//128
f 126//126 481//481 146//146
f 482//482 128//128 148//148
f 482//482 148//148 152//152
f 146//146 481//481 165//165
f 165//165 481//481 172//172
f 482//482 152//152 174//174
f 172//172 481//481 191//191
f 482//482 174//174 193//193
f 482//482 193//193 197//197
f 191//191 481//481 210//210
f 210//210 481//481 217//217
f 482//482 197//197 219//219
f 217//217 481//481 236//236
f 482//482 219//219 238//238
f 482//482 238//238 244//244
f 236//236 481//481 241//241
f 241//241 481//481 263//263
f 482//482 244//244 265//265
f 263//263 481//481 283//283
f 482//482 265//265 285//285
f 482//482 285//285 292//292
f 283//283 481//481 290//290
f 290//290 481//481 309//309
f 482//482 292//292 311//311
f 482//482 311//311 330//330
f 309//309 481//481 328//328
f 482//482 330//330 337//337
f 328//328 481//481 335//335
f 335//335 481//481 354//354
f 482//482 337//337 356//356
f 482//482 356//356 375//375
f 354//354 481//481 373//373
f 373//373 481//481 380//380
f 482//482 375//375 382//382
f 380//380 481//481 400//400
f 482//482 382//382 402//402
f 482//482 402//402 420//420
f 400//400 481//481 419//419
f 419//419 481//481 427//427
f 482//482 420//420 429//429
f 427//427 481//481 446//446
f 482//482 429//429 448//448
f 482//482 448//448 452//452
f 446//446 481//481 465//465
f 465//465 481//481 472//472
f 482//482 452//452 474//474
f 479//479 477//477 27//27
f 479//479 27//27 2//2
f 480//480 478//478 29//29
f 480//480 29//29 6//6
f 2//2 1//1 466//466
f 2//2 466//466 479//479
f 468//468 480//480 6//6
f 468//468 6//6 5//5
f 1//1 9//9 467//467
f 1//1 467//467 466//466
f 469//469 468//468 5//5
f 469//469 5//5 11//11
f 472//472 481//481 18//18
f 470//470 467//467 9//9
f 470//470 9//9 13//13
f 471//471 469//469 11//11
f 471//471 11//11 15//15
f 473//473 472//472 18//18
f 473//473 18//18 17//17
f 474//474 470//470 13//13
f 474//474 13//13 21//21
f 475//475 471//471 15//15
f 475//475 15//15 23//23
f 476//476 473//473 17//17
f 476//476 17//17 25//25
f 482//482 474//474 21//21
f 477//477 475//475 23//23
f 477//477 23//23 27//27
f 478//478 476//476 25//25
f 478//478 25//25 29//29
